{
  "$schema": "https://raw.githubusercontent.com/DotNetAnalyzers/StyleCopAnalyzers/master/StyleCop.Analyzers/StyleCop.Analyzers/Settings/stylecop.schema.json",
  "settings": {
    "documentationRules": {
      "companyName": "M+F Engineering AG",
      "headerDecoration": "-----------------------------------------------------------------------",
      "documentInternalElements": false
    }
  }
}
